<svg width="91" height="87" viewBox="0 0 91 87" fill="none" xmlns="http://www.w3.org/2000/svg">
<path d="M31.4191 75.3107C32.2336 67.812 28.2788 52.3187 5.94449 50.3355" stroke="#025CE0" stroke-width="2"/>
<path d="M1 32.2688C21.7113 15.3232 62.5691 -5.95292 60.3097 44.5073C57.4854 107.583 56.4896 84.0471 89.9373 64.2772" stroke="#025CE0" stroke-width="2"/>
<path d="M75.89 49.2376C78.9163 33.1592 76.9081 1.3173 44.6642 2.57682" stroke="#025CE0" stroke-width="2"/>
</svg>
