[
	{
		"id": "1",
		"value": "Buah apa saja yang dimiliki Andi?"
	},
	{
		"id": "2",
		"value": "Andi memisahkan buahnya menjadi beberapa wadah berdasarkan tipe buah (fruitType). Berapa jumlah wadah yang dibutuhkan? Dan ada buah apa saja di masing-masing wadah?"
	},
	{
		"id": "3",
		"value": "Berapa total stock buah yang ada di masing-masing wadah?"
	},
	{
		"id": "4",
		"value": "Apakah ada komentar terkait kasus di atas?"
	}
]
