[
	{
		"id": 1,
		"title": "What is  Camplify?",
		"value": "Lorem ipsum dolor sit amet, consectetur adipiscing elit. Sollicitudin volutpat sit est elit etiam donec amet. Orci fames auctor sit nisl in tellus. Egestas nibh aenean dignissim tellus, bibendum dictum. Nunc integer amet at enim cursus et mi at."
	},
	{
		"id": 2,
		"title": "How book tickets?",
		"value": [
			{
				"id": 1,
				"step": "Lorem ipsum dolor sit amet, consectetur adipiscing elit."
			},
			{
				"id": 2,
				"step": "Lorem ipsum dolor sit amet, consectetur adipiscing elit."
			},
			{
				"id": 3,
				"step": "Lorem ipsum dolor sit amet, consectetur adipiscing elit."
			}
		]
	},
	{
		"id": 3,
		"title": "What kinds of service will i get?",
		"value": "Lorem ipsum dolor sit amet, consectetur adipiscing elit. Sollicitudin volutpat sit est elit etiam donec amet. Orci fames auctor sit nisl in tellus. Egestas nibh aenean dignissim tellus, bibendum dictum. Nunc integer amet at enim cursus et mi at."
	}
]
